[
  {
    "service" : "Full Body Massage (55 mins)",
    "price" : "$78"
  },
  {
    "service" : "Add on: Deep Tissue Massage (per area)",
    "price" : "$25"
  },
  {
    "service" : "Hot Stone Massage (55 mins)",
    "price" : "$73"
  },
  {
    "service" : "Maternity Massage (55 mins)",
    "price" : "$50"
  },
  {
    "service" : "Delux Seated Massage (20 mins)",
    "price" : "$23"
  },
  {
    "service" : "Regular Seated Massage (10 mins)",
    "price" : "$10"
  },
  {
    "service" : "Body Polish (1 hr)",
    "price" : "$68"
  },
  {
    "service" : "Sea Mud Wrap (1 hr)",
    "price" : "$78"
  },
  {
    "service" : "The Ultimate Body Treatment (1hr 50 mins)",
    "price" : "$100"
  },
  {
    "service" : "Full Body Massage (55 mins)",
    "price" : "$78"
  }
]