[
  {
    "image": "app/images/team31.jpg",
    "name": "CARON MINICE",
    "position": "Nail staff",
    "description": "I have been licensed for 14 years. <br/>I have worked at Aqua Spa for 14 years.<br/>Pedicure, Manicure, Shellac, Acrylic Nail, Waxing"
  },
  {
    "image": "app/images/team32.jpg",
    "name": "MICHEL CARTER",
    "position": "Massage man",
    "description": "I have been licensed for 12 years.<br/>Nice, clean, friendly, relaxing environment. <br/>Good rate, flexible hours"
  },
  {
    "image": "app/images/team33.png",
    "name":"TARA STITLER",
    "position": "Yoga teacher",
    "description": "Certified in Hatha Yoga, Tara offers a fusion of different styles she has learned over the years, and blends tradition with the physiology of the body."
  }
]